Chapter 2 Gene Ontology | Genomic Data Analysis Course Exercises
…
msn24_EtOH <- # assign a new object name
  DE_results_msn24_EtOH |> # our object with messy names
  clean_names() # function from janitor package to make names consistent

2.4 Get DE gene list

We need a list of deferentially expressed genes to test for over or under enrichment of terms. Here we choose genes with significantly (FDR<0.05) higher expression (log2-fold change (logFC) greater than 1) in the msn2/4ΔΔ mutant’s EtOH response compared to the wild-type strains EtOH response (positive values in the logFC column of WT vs msn2/4ΔΔ: EtOH response).

# subset to just genes with significant fdr & log2FC>1
msn24_EtOH |>
  filter(log_fc_wt_v_msn2_4dd_et_oh_response > 1 & fdr_wt_v_msn2_4dd_et_oh_response < 0.05) 

## # A tibble: 94 × 18
##    gene_id  common_name annotation log_fc_yps606_wt_et_…¹ pvalue_yps606_wt_et_…²
##    <chr>    <chr>       <chr>                       <dbl>                  <dbl>
##  1 YOR315W  SFG1        Putative …                  -5.52               4.33e-31
##  2 YFL051C  YFL051C     <NA>                        -4.54               6.37e-27
##  3 YMR016C  SOK2        Nuclear p…                  -3.09               1.32e-32
##  4 YPL061W  ALD6        Cytosolic…                  -7.04               4.96e-26
##  5 YER073W  ALD5        Mitochond…                  -1.88               6.14e-17
##  6 YBL005W… YBL005W-B   Retrotran…                   1.91               5.46e-13
##  7 YBL039C  URA7        Major CTP…                  -6.95               3.62e-41
##  8 YJL050W  MTR4        RNA duple…                  -4.59               4.73e-36
##  9 YMR241W  YHM2        Citrate a…                  -1.72               1.72e-20
## 10 YIL131C  FKH1        Forkhead …                  -2.20               1.23e-27
## # ℹ 84 more rows
## # ℹ abbreviated names: ¹​log_fc_yps606_wt_et_oh_response,
## #   ²​pvalue_yps606_wt_et_oh_response
## # ℹ 13 more variables: fdr_yps606_wt_et_oh_response <dbl>,
## #   log_fc_yps606_msn2_4dd_et_oh_response <dbl>,
## #   pvalue_yps606_msn2_4dd_et_oh_response <dbl>,
## #   fdr_yps606_msn2_4dd_et_oh_response <dbl>, …
…
